{
	"info": {
		"_postman_id": "050bd450-99a1-4937-9e83-eeb178c235b5",
		"name": "usecase-collection",
		"description": "supply chain usecase",
		"schema": "https://schema.getpostman.com/json/collection/v2.1.0/collection.json"
	},
	"item": [
		{
			"name": "seller1",
			"request": {
				"method": "POST",
				"header": [
					{
						"key": "Content-Type",
						"value": "application/json",
						"type": "text"
					}
				],
				"body": {
					"mode": "raw",
					"raw": "{\"id\":\"amazon\",\"type\":\"seller\",\"location\":\"bangalore\"}"
				},
				"url": {
					"raw": "localhost:3000/api/actor",
					"host": [
						"52",
						"14",
						"191",
						"130"
					],
					"port": "3000",
					"path": [
						"api",
						"actor"
					]
				}
			},
			"response": []
		},
		{
			"name": "logistics1",
			"request": {
				"method": "POST",
				"header": [
					{
						"key": "Content-Type",
						"type": "text",
						"value": "application/json"
					}
				],
				"body": {
					"mode": "raw",
					"raw": "{\"id\":\"bluedart\",\"type\":\"logistics\",\"location\":\"chennai\"}"
				},
				"url": {
					"raw": "localhost:3000/api/actor",
					"host": [
						"52",
						"14",
						"191",
						"130"
					],
					"port": "3000",
					"path": [
						"api",
						"actor"
					]
				}
			},
			"response": []
		},
		{
			"name": "buyer1",
			"request": {
				"method": "POST",
				"header": [
					{
						"key": "Content-Type",
						"type": "text",
						"value": "application/json"
					}
				],
				"body": {
					"mode": "raw",
					"raw": "{\"id\":\"Niket\",\"type\":\"buyer\",\"location\":\"goa\"}"
				},
				"url": {
					"raw": "localhost:3000/api/actor",
					"host": [
						"52",
						"14",
						"191",
						"130"
					],
					"port": "3000",
					"path": [
						"api",
						"actor"
					]
				}
			},
			"response": []
		},
		{
			"name": "shipment1",
			"request": {
				"method": "POST",
				"header": [
					{
						"key": "Content-Type",
						"type": "text",
						"value": "application/json"
					}
				],
				"body": {
					"mode": "raw",
					"raw": "{\"shipmentID\":\"ABC\",\"sellerID\":\"amazon\",\"buyerID\":\"Niket\",\"lgpID\":\"bluedart\"}"
				},
				"url": {
					"raw": "localhost:3000/api/shipment",
					"host": [
						"52",
						"14",
						"191",
						"130"
					],
					"port": "3000",
					"path": [
						"api",
						"shipment"
					]
				}
			},
			"response": []
		},
		{
			"name": "status update",
			"request": {
				"method": "POST",
				"header": [
					{
						"key": "Content-Type",
						"type": "text",
						"value": "application/json"
					}
				],
				"body": {
					"mode": "raw",
					"raw": "{\"shipmentID\":\"ABC\",\"updatedStatus\":\"Delivered\"}"
				},
				"url": {
					"raw": "localhost:3000/api/shipment/status",
					"host": [
						"52",
						"14",
						"191",
						"130"
					],
					"port": "3000",
					"path": [
						"api",
						"shipment",
						"status"
					]
				}
			},
			"response": []
		},
		{
			"name": "timeRaster request",
			"request": {
				"method": "POST",
				"header": [
					{
						"key": "Content-Type",
						"type": "text",
						"value": "application/json"
					}
				],
				"body": {
					"mode": "raw",
					"raw": "{\"shipmentID\":\"ABC\",\"sellerID\":\"amazon\",\"buyerID\":\"Niket\",\"lgpID\":\"bluedart\"}"
				},
				"url": {
					"raw": "localhost:3000/api/shipment",
					"host": [
						"52",
						"14",
						"191",
						"130"
					],
					"port": "3000",
					"path": [
						"api",
						"shipment"
					]
				}
			},
			"response": []
		},
		{
			"name": "generateSellerView",
			"protocolProfileBehavior": {
				"disableBodyPruning": true
			},
			"request": {
				"method": "GET",
				"header": [
					{
						"key": "Content-Type",
						"type": "text",
						"value": "application/json"
					}
				],
				"body": {
					"mode": "raw",
					"raw": "{\"sellerID\":\"amazon\"}"
				},
				"url": {
					"raw": "localhost:3000/api/shipment/seller/amazon",
					"host": [
						"52",
						"14",
						"191",
						"130"
					],
					"port": "3000",
					"path": [
						"api",
						"shipment",
						"seller",
						"amazon"
					]
				}
			},
			"response": []
		},
		{
			"name": "generateBuyerView",
			"request": {
				"method": "GET",
				"header": [
					{
						"key": "Content-Type",
						"type": "text",
						"value": "application/json"
					}
				],
				"url": {
					"raw": "localhost:3000/api/shipment/buyer/Niket",
					"host": [
						"52",
						"14",
						"191",
						"130"
					],
					"port": "3000",
					"path": [
						"api",
						"shipment",
						"buyer",
						"Niket"
					]
				}
			},
			"response": []
		},
		{
			"name": "getTimeRaster details",
			"request": {
				"method": "GET",
				"header": [
					{
						"key": "Content-Type",
						"type": "text",
						"value": "application/json"
					}
				],
				"url": {
					"raw": "localhost:3000/api/timeRaster/ABC",
					"host": [
						"52",
						"14",
						"191",
						"130"
					],
					"port": "3000",
					"path": [
						"api",
						"timeRaster",
						"ABC"
					]
				}
			},
			"response": []
		},
		{
			"name": "getHistoryForShipment",
			"request": {
				"method": "GET",
				"header": [
					{
						"key": "Content-Type",
						"type": "text",
						"value": "application/json"
					}
				],
				"url": {
					"raw": "localhost:3000/api/shipment/buyer/Niket",
					"host": [
						"52",
						"14",
						"191",
						"130"
					],
					"port": "3000",
					"path": [
						"api",
						"shipment",
						"buyer",
						"Niket"
					]
				}
			},
			"response": []
		},
		{
			"name": "generateLogisticsView",
			"request": {
				"method": "GET",
				"header": [
					{
						"key": "Content-Type",
						"type": "text",
						"value": "application/json"
					}
				],
				"url": {
					"raw": "localhost:3000/shipment/logistics/bluedart",
					"host": [
						"52",
						"14",
						"191",
						"130"
					],
					"port": "3000",
					"path": [
						"shipment",
						"logistics",
						"bluedart"
					]
				}
			},
			"response": []
		}
	],
	"protocolProfileBehavior": {}
}